# bar 71
1:8:tempo:115
7:32:f2:7:32:25 1
7:16:e1:3:16:115 0.9
7:16:d#3:5:16:110 0.9
7:16:g#3:5:16:110 0.9
7:16:f4:5:16:110 0.9
11:16:a#2:1:16:25 0.9
12:16:e3:1:16:25 0.9
13:16:c#4:1:16:25 0.9
14:16:g3:11:64:25 0.9
14:16:f#3:1:16:25 0.9
15:16:f2:1:16:25 0.9
16:16:d#2:3:64:25 0.9
64:64:g#1:13:64:110 0.95
64:64:c5:13:64:110 0.95
64:64:d5:13:64:110 0.95
64:64:ef5:13:64:110 0.95
=
# bar 72
4:16:d4:6:16:25 0.9
4:16:c4:6:16:25 0.9
4:16:b3:6:16:25 0.9
4:16:g3:6:16:25 0.9
4:16:e3:3:16:25 0.9
4:16:a#2:29:80:25 0.9
4:16:f2:29:80:25 0.9
7:16:c3:3:16:25 0.9
12:20:a4:1:4:25 0.9
12:20:d#2:1:4:25 0.9
12:20:c#1:1:4:25 0.9
10:16:e4:1:16:25 0.9
10:16:g2:6:16:25 0.9
11:16:g#3:1:16:25 0.9
12:16:d4:1:16:25 0.9
13:16:e4:1:16:25 0.9
17:20:a4:4:20:25 0.9
17:20:e2:19:80:25 0.9
17:20:b0:19:80:30 0.9
14:16:f4:1:16:25 0.9
15:16:c5:1:16:25 0.9
16:16:d5:1:16:25 0.9
=
# bar 73
1:16:b5:1:16:25 0.9
2:16:g3:3:16:25 0.9
2:16:f3:1:16:25 0.9
2:16:a1:7:64:25 0.9
2:16:g#0:7:64:25 0.9
3:16:a#2:1:16:25 0.9
12:64:c2:1:4:25 1.1
4:16:c#3:1:16:25 0.9
5:16:f#3:1:16:25 0.9
5:16:e3:1:16:25 0.9
28:64:g#1:21:64:25 0.9
21:32:b3:1:32:25 0.9
22:32:c#4:1:32:25 0.9
22:32:b3:1:32:25 0.9
22:32:a#3:1:32:25 0.9
22:32:c3:1:32:25 0.9
12:16:d#4:1:16:25 0.9
13:16:f#4:1:16:25 0.9
13:16:c2:1:16:25 0.9
13:16:a0:1:16:25 0.9
14:16:f4:3:16:25 0.9
14:16:e4:1:16:25 0.9
14:16:g1:3:32:25 0.9
14:16:g#0:3:32:25 0.9
15:16:d4:1:16:25 0.9
30:32:c#1:5:32:25 0.9
16:16:b3:1:16:25 0.9
=
# bar 74
1:16:e4:1:16:25 0.9
1:16:d#4:1:16:25 0.9
2:16:df4:1:4:25 0.9
2:16:c4:1:16:25 0.9
2:16:a#1:3:32:25 0.9
2:16:a0:3:32:30 0.9
3:16:g3:1:16:25 0.9
6:32:f#0:27:32:35 0.9
4:16:f4:1:16:25 0.9
14:32:gf4:19:32:25 0.9
14:32:f4:19:32:25 0.9
14:32:d#4:19:32:25 0.9
14:32:c4:19:32:25 0.9
14:32:g3:7:64:25 1.1
14:32:d3:3:32:25 0.9
14:32:b2:3:32:25 0.9
34:64:a3:1:8:30 1.1
42:64:c3:1:8:35 1.1
50:64:g2:3:64:40 0.9
14:16:c#3:1:4:25 0.9
14:16:b#2:1:16:25 0.9
15:16:d#2:1:16:25 0.9
16:16:e2:1:16:25 0.9
=
# bar 75
1:16:b2:1:16:25 0.9
2:16:f3:1:16:25 0.9
2:16:d3:1:4:25 0.9
2:16:g#1:3:16:25 0.9
2:16:f#0:3:16:35 0.9
3:16:g3:1:16:25 0.9
4:16:b#3:1:16:25 0.9
5:16:d#3:1:16:25 0.9
5:16:b1:1:16:25 0.9
5:16:a#0:1:16:35 0.9
6:16:f4:1:4:25 0.9
6:16:e4:1:16:25 0.9
6:16:d2:5:64:25 0.9
6:16:c#1:5:64:25 0.9
7:16:g3:1:16:25 0.9
26:64:g#2:7:64:25 1.1
8:16:b3:1:16:25 0.9
9:16:c#4:1:16:25 0.9
10:16:c##4:1:4:25 0.9
10:16:b#3:1:16:25 0.9
11:16:d#3:1:16:25 0.9
11:16:c2:1:2:35 0.9
12:16:a3:1:16:25 0.9
13:16:e4:1:16:25 0.9
14:16:f4:1:16:25 0.9
14:16:a#3:1:16:25 0.9
8:8:b2:5:8:25 0.9
8.3:8:f#3:4.7:8:25 0.9
8.6:8:a3:4.4:8:25 0.9
8.9:8:g4:4.1:8:25 0.9
=
# bar 76
2:8:f1:15:16:45 1.1
24:64:c1:13:64:50 0.9
9:16:b#4:1:16:25 0.9
10:16:e5:1:4:25 0.9
10:16:d#5:1:16:25 0.9
10:16:f#3:3:16:25 0.9
10:16:f2:3:16:25 0.9
11:16:g#5:1:16:25 0.9
12:16:b5:1:16:25 0.9
13:16:f5:1:16:25 0.9
13:16:b#2:1:16:25 0.9
13:16:c##4:1:16:25 0.9
14:16:d6:3:16:25 0.9
14:16:c6:1:16:25 0.9
14:16:e4:11:64:25 0.9
14:16:d#3:11:64:25 0.9
15:16:d#5:1:16:25 0.9
16:16:a#5:1:16:25 0.9
64:64:c#3:13:64:35 0.9
=
# bar 77
3:16:tempo:93.75
3:16:e4:1:2:35 0.95
3:16:g3:1:2:35 0.95
3:16:f#3:1:2:35 0.95
3:16:d#3:1:2:35 0.95
18:48:g#1:2:12:35 0.9
26:48:f#1:16:48:35 0.9
13:20:c3:8:20:18 0.9
13:20:bf2:8:20:18 0.9
13:20:a2:8:20:18 0.9
13:20:d0:8:20:25 0.9
13:20:c#0:8:20:25 0.9
13:20:b-1:8:20:25 0.9
42:48:c#1:8:48:35 0.9
=
2:48:e0:8:48:35 0.9
4:16:a#4:1:2:35 0.9
4:16:c4:1:2:35 0.9
4:16:a3:1:2:35 0.9
4:16:b2:1:2:35 0.9
4:16:a2:1:2:35 0.9
4:16:g#3:1:8:35 0.9
4:16:g2:1:8:35 0.9
6:16:g3:1:8:35 0.9
6:16:f#2:1:8:35 0.9
8:16:e3:1:8:35 0.9
8:16:d#2:1:8:35 0.9
10:16:f3:1:8:35 0.9
10:16:d2:1:8:35 0.9
12:16:df4:26:80:35 0.9
12:16:c4:26:80:35 0.9
12:16:g#3:26:80:35 0.9
12:16:b2:26:80:35 0.9
42:48:g2:8:48:35 0.9
42:48:a#1:8:48:35 0.9
=
# bar 79 (2 bars)
2:48:f2:8:48:35 0.9
2:48:e1:8:48:35 0.9
4:40:c3:9:40:18 0.9
4:40:bf2:9:40:18 0.9
4:40:a2:9:40:18 0.9
4:40:d0:9:40:30 0.9
4:40:c#0:9:40:30 0.9
4:40:b-1:9:40:30 0.9
18:48:c2:8:48:35 0.9
18:48:b0:8:48:35 0.9
26:48:e1:8:48:35 0.9
26:48:d#0:8:48:35 0.9
12:16:af4:14:48:35 0.9
12:16:g4:14:48:35 0.9
12:16:a#3:14:48:35 0.9
12:16:f#3:5:16:35 0.9
12:16:a2:5:16:35 0.9
12:16:g#3:1:8:35 0.9
12:16:g2:1:8:35 0.9
14:16:f3:1:8:34 0.9
14:16:e2:1:8:34 0.9
46:48:f#3:2:48:35 0.9
46:48:d#3:2:48:35 0.9
48:48:c3:44:48:18 0.9
48:48:bf2:44:48:18 0.9
48:48:a2:44:48:18 0.9
48:48:d0:42:48:25 0.9
48:48:c#0:42:48:25 0.9
48:48:b-1:42:48:25 0.9
=
42:48:d2:7:48:35 0.9
42:48:c1:7:48:35 0.9
