1:4:tempo:125.33
1:12:a#3:1:12:95 1.1
4:40:a1:0.7:40:110 1.1
4.7:40:g0:3.3:40:110 0.5
2:12:f#3:1:12:95 1.1
8:40:g#2:0.7:40:110 1.1
8.7:40:f3:3.3:40:110 1.1
2:6:b2:1:6:95 0.7
16:40:a#1:4:40:95 1
3:6:d4:1:6:95 0.9
20:40:e2:1:40:95 1
7:12:b#3:1:12:95 0.9
5:8:c#1:7:40:95 0.9
8:12:a#3:1:12:95 0.9
28:40:bf0:0.7:40:25 1.1
28.7:40:a0:18.8:240:25 0.9
9:12:g#3:1:12:95 0.9
10:12:f#3:1:12:95 0.9
32:40:d3:0.7:40:25 1.1
32.7:40:c#3:2.3:40:25 0.9
11:12:e#3:1:12:95 0.9
35:40:b1:6:40:95 0.9
12:12:g3:1:12:95 0.9
39:40:e3:4:40:110 0.7
39.6:40:c3:3.4:40:110 0.7
40.2:40:d#2:2.8:40:110 0.7
