1:16:tempo:93.75
4:16:b4:13:16:45 0.95
4:16:a#3:13:16:45 0.95
4:16:g#2:13:16:45 0.95
8:24:tempo:83.75
8:24:g2:1:24:105 1.1
9:24:f2:1:24:105 1.1
12:32:e1:1:8:108 0.9
10:24:a2:1:24:105 1.1
11:24:ef2:1:24:105 1.1
28:64:d2:15:64:105 0.9
28:64:gf2:15:64:105 0.9
28:64:c2:15:64:105 0.9
31:64:g#2:1:64:120 0.5
20:40:gf6:11:40:5 1
20:40:f6:11:40:5 1
20:40:d6:11:40:5 1
32:64:g#2:1:64:120 0.9
34:64:g#2:1:64:120 0.9
38:64:g#2:1:64:120 0.9
36:48:e2:1:24:75 1.1
48:64:d2:7:64:75 0.9
48:64:g2:7:64:75 0.9
48:64:df2:7:64:75 0.9
38:48:bf2:1:24:75 1.1
40:48:c3:1:24:70 1.1
42:48:cf3:1:24:70 1.1
58:64:af2:7:64:65 0.9
44:48:a2:1:48:65 1.1
23:24:gf2:1:24:60 1.1
24:24:f3:1:24:55 1.1
