%
% all bars
%
\include "./bars/bar001.ly"
\include "./bars/bar002.ly"
\include "./bars/bar003.ly"
\include "./bars/bar004.ly"
\include "./bars/bar005.ly"
\include "./bars/bar006.ly"
\include "./bars/bar007.ly"
\include "./bars/bar008.ly"
\include "./bars/bar009.ly"
\include "./bars/bar010.ly"
\include "./bars/bar011.ly"
\include "./bars/bar012.ly"
\include "./bars/bar013.ly"
\include "./bars/bar014.ly"
\include "./bars/bar015.ly"
\include "./bars/bar016.ly"
\include "./bars/bar017.ly"
\include "./bars/bar018.ly"
\include "./bars/bar019.ly"
\include "./bars/bar020.ly"
\include "./bars/bar021.ly"
\include "./bars/bar022.ly"
\include "./bars/bar023.ly"
\include "./bars/bar024.ly"
\include "./bars/bar025.ly"
\include "./bars/bar026.ly"
\include "./bars/bar027.ly"
\include "./bars/bar028.ly"
\include "./bars/bar029.ly"
\include "./bars/bar030.ly"
\include "./bars/bar031.ly"
\include "./bars/bar032.ly"
\include "./bars/bar033.ly"
\include "./bars/bar034.ly"
\include "./bars/bar035.ly"
\include "./bars/bar036.ly"
\include "./bars/bar037.ly"
\include "./bars/bar038.ly"
\include "./bars/bar039.ly"
\include "./bars/bar040.ly"
\include "./bars/bar041.ly"
\include "./bars/bar042.ly"
\include "./bars/bar043.ly"
\include "./bars/bar044.ly"
\include "./bars/bar045.ly"
\include "./bars/bar046.ly"
\include "./bars/bar047.ly"
\include "./bars/bar048.ly"
\include "./bars/bar049.ly"
\include "./bars/bar050.ly"
\include "./bars/bar051.ly"
\include "./bars/bar052.ly"
\include "./bars/bar053.ly"
\include "./bars/bar054.ly"
\include "./bars/bar055.ly"
\include "./bars/bar056.ly"
\include "./bars/bar057.ly"
\include "./bars/bar058.ly"
\include "./bars/bar059.ly"
\include "./bars/bar060.ly"
\include "./bars/bar061.ly"
\include "./bars/bar062.ly"
\include "./bars/bar063.ly"
\include "./bars/bar064.ly"
\include "./bars/bar065.ly"
\include "./bars/bar066.ly"
\include "./bars/bar067.ly"
\include "./bars/bar068.ly"
\include "./bars/bar069.ly"
\include "./bars/bar070.ly"
\include "./bars/bar071.ly"
\include "./bars/bar072.ly"
\include "./bars/bar073.ly"
\include "./bars/bar074.ly"
\include "./bars/bar075.ly"
\include "./bars/bar076.ly"
\include "./bars/bar077.ly"
\include "./bars/bar078.ly"
\include "./bars/bar079.ly"
\include "./bars/bar080.ly"
\include "./bars/bar081.ly"
\include "./bars/bar082.ly"
\include "./bars/bar083.ly"
\include "./bars/bar084.ly"
\include "./bars/bar085.ly"
\include "./bars/bar086.ly"
\include "./bars/bar087.ly"
\include "./bars/bar088.ly"
\include "./bars/bar089.ly"
\include "./bars/bar090.ly"
\include "./bars/bar091.ly"
\include "./bars/bar092.ly"
\include "./bars/bar093.ly"
\include "./bars/bar094.ly"
\include "./bars/bar095.ly"
\include "./bars/bar096.ly"
\include "./bars/bar097.ly"
\include "./bars/bar098.ly"
\include "./bars/bar099.ly"
\include "./bars/bar100.ly"
\include "./bars/bar101.ly"
\include "./bars/bar102.ly"
\include "./bars/bar103.ly"
\include "./bars/bar104.ly"
\include "./bars/bar105.ly"
\include "./bars/bar106.ly"
\include "./bars/bar107.ly"
\include "./bars/bar108.ly"
\include "./bars/bar109.ly"
\include "./bars/bar110.ly"
\include "./bars/bar111.ly"
\include "./bars/bar112.ly"
\include "./bars/bar113.ly"
\include "./bars/bar114.ly"
\include "./bars/bar115.ly"
\include "./bars/bar116.ly"
\include "./bars/bar117.ly"
\include "./bars/bar118.ly"
\include "./bars/bar119.ly"
\include "./bars/bar120.ly"
\include "./bars/bar121.ly"
\include "./bars/bar122.ly"
\include "./bars/bar123.ly"
\include "./bars/bar124.ly"
\include "./bars/bar125.ly"
\include "./bars/bar126.ly"
\include "./bars/bar127.ly"
\include "./bars/bar128.ly"
\include "./bars/bar129.ly"
\include "./bars/bar130.ly"
\include "./bars/bar131.ly"
\include "./bars/bar132.ly"
\include "./bars/bar133.ly"
\include "./bars/bar134.ly"
\include "./bars/bar135.ly"
\include "./bars/bar136.ly"
\include "./bars/bar137.ly"
\include "./bars/bar138.ly"
\include "./bars/bar139.ly"
\include "./bars/bar140.ly"
\include "./bars/bar141.ly"
\include "./bars/bar142.ly"
\include "./bars/bar143.ly"
\include "./bars/bar144.ly"
\include "./bars/bar145.ly"
\include "./bars/bar146.ly"
\include "./bars/bar147.ly"
\include "./bars/bar148.ly"
\include "./bars/bar149.ly"
\include "./bars/bar150.ly"
\include "./bars/bar151.ly"
\include "./bars/bar152.ly"
\include "./bars/bar153.ly"
\include "./bars/bar154.ly"
\include "./bars/bar155.ly"
\include "./bars/bar156.ly"
\include "./bars/bar157.ly"
\include "./bars/bar158.ly"
\include "./bars/bar159.ly"
\include "./bars/bar160.ly"
\include "./bars/bar161.ly"
\include "./bars/bar162.ly"
\include "./bars/bar163.ly"
\include "./bars/bar164.ly"
\include "./bars/bar165.ly"
\include "./bars/bar166.ly"
\include "./bars/bar167.ly"
\include "./bars/bar168.ly"
\include "./bars/bar169.ly"
\include "./bars/bar170.ly"
\include "./bars/bar171.ly"
\include "./bars/bar172.ly"
\include "./bars/bar173.ly"
\include "./bars/bar174.ly"
\include "./bars/bar175.ly"
\include "./bars/bar176.ly"
\include "./bars/bar177.ly"
\include "./bars/bar178.ly"
\include "./bars/bar179.ly"
\include "./bars/bar180.ly"
\include "./bars/bar181.ly"
\include "./bars/bar182.ly"
\include "./bars/bar183.ly"
\include "./bars/bar184.ly"
\include "./bars/bar185.ly"
\include "./bars/bar186.ly"
\include "./bars/bar187.ly"
\include "./bars/bar188.ly"
\include "./bars/bar189.ly"
\include "./bars/bar190.ly"
\include "./bars/bar191.ly"
\include "./bars/bar192.ly"
\include "./bars/bar193.ly"
\include "./bars/bar194.ly"
\include "./bars/bar195.ly"
\include "./bars/bar196.ly"
\include "./bars/bar197.ly"
\include "./bars/bar198.ly"
\include "./bars/bar199.ly"
\include "./bars/bar200.ly"
\include "./bars/bar201.ly"
\include "./bars/bar202.ly"
\include "./bars/bar203.ly"
\include "./bars/bar204.ly"
\include "./bars/bar205.ly"
\include "./bars/bar206.ly"
\include "./bars/bar207.ly"
\include "./bars/bar208.ly"
\include "./bars/bar209.ly"
\include "./bars/bar210.ly"
\include "./bars/bar211.ly"
\include "./bars/bar212.ly"
