lower = <<
	\new Voice = "lowerupper" {
	\relative c {
		\clef bass
		\global_settings

			\lhoneone
			\lhtwoone
			\lhthreeone
			\lhfourone
			\lhfiveone
			\lhsixone
			\lhsevenone
			\lheightone
			\lhnineone
			\lhtenone
			\lhelevenone
			\lhtwelveone
			\lhthirteenone
			\lhfourteenone
			\lhfifteenone
			\lhsixteenone
			\lhseventeenone
			\lheighteenone
			\lhnineteenone
			\lhtwentyone
			\lhtwentyoneone
			\lhtwentytwoone
			\lhtwentythreeone
			\lhtwentyfourone
			\lhtwentyfiveone
			\lhtwentysixone
			\lhtwentysevenone
			\lhtwentyeightone
			\lhtwentynineone
			\lhthirtyone
			\lhthirtyoneone
			\lhthirtytwoone
			\lhthirtythreeone
			\lhthirtyfourone
			\lhthirtyfiveone
			\lhthirtysixone
			\lhthirtysevenone
			\lhthirtyeightone
			\lhthirtynineone
			\lhfortyone
			\lhfortyoneone
			\lhfortytwoone
			\lhfortythreeone
			\lhfortyfourone
			\lhfortyfiveone
			\lhfortysixone
			\lhfortysevenone
			\lhfortyeightone
			\lhfortynineone
			\lhfiftyone
			\lhfiftyoneone
			\lhfiftytwoone
			\lhfiftythreeone
			\lhfiftyfourone
			\lhfiftyfiveone
			\lhfiftysixone
			\lhfiftysevenone
			\lhfiftyeightone
			\lhfiftynineone
			\lhsixtyone
			\lhsixtyoneone
			\lhsixtytwoone
			\lhsixtythreeone
			\lhsixtyfourone
			\lhsixtyfiveone
			\lhsixtysixone
			\lhsixtysevenone
			\lhsixtyeightone
			\lhsixtynineone
			\lhseventyone
			\lhseventyoneone
			\lhseventytwoone
			\lhseventythreeone
			\lhseventyfourone
			\lhseventyfiveone
			\lhseventysixone
			\lhseventysevenone
			\lhseventyeightone
			\lhseventynineone
			\lheightyone
			\lheightyoneone
			\lheightytwoone
			\lheightythreeone
			\lheightyfourone
			\lheightyfiveone
			\lheightysixone
			\lheightysevenone
			\lheightyeightone
			\lheightynineone
			\lhninetyone
			\lhninetyoneone
			\lhninetytwoone
			\lhninetythreeone
			\lhninetyfourone
			\lhninetyfiveone
			\lhninetysixone
			\lhninetysevenone
			\lhninetyeightone
			\lhninetynineone
			\lhonehundredone
			\lhonehundredandoneone
			\lhonehundredandtwoone
			\lhonehundredandthreeone
			\lhonehundredandfourone
			\lhonehundredandfiveone
			\lhonehundredandsixone
			\lhonehundredandsevenone
			\lhonehundredandeightone
			\lhonehundredandnineone
			\lhonehundredandtenone
			\lhonehundredandelevenone
			\lhonehundredandtwelveone
			\lhonehundredandthirteenone
			\lhonehundredandfourteenone
			\lhonehundredandfifteenone
			\lhonehundredandsixteenone
			\lhonehundredandseventeenone
			\lhonehundredandeighteenone
			\lhonehundredandnineteenone
			\lhonehundredandtwentyone
			\lhonehundredandtwentyoneone
			\lhonehundredandtwentytwoone
			\lhonehundredandtwentythreeone
			\lhonehundredandtwentyfourone
			\lhonehundredandtwentyfiveone
			\lhonehundredandtwentysixone
			\lhonehundredandtwentysevenone
			\lhonehundredandtwentyeightone
			\lhonehundredandtwentynineone
			\lhonehundredandthirtyone
			\lhonehundredandthirtyoneone
			\lhonehundredandthirtytwoone
			\lhonehundredandthirtythreeone
			\lhonehundredandthirtyfourone
			\lhonehundredandthirtyfiveone
			\lhonehundredandthirtysixone
			\lhonehundredandthirtysevenone
			\lhonehundredandthirtyeightone
			\lhonehundredandthirtynineone
			\lhonehundredandfortyone
			\lhonehundredandfortyoneone
			\lhonehundredandfortytwoone
			\lhonehundredandfortythreeone
			\lhonehundredandfortyfourone
			\lhonehundredandfortyfiveone
			\lhonehundredandfortysixone
			\lhonehundredandfortysevenone
			\lhonehundredandfortyeightone
			\lhonehundredandfortynineone
			\lhonehundredandfiftyone
			\lhonehundredandfiftyoneone
			\lhonehundredandfiftytwoone
			\lhonehundredandfiftythreeone
			\lhonehundredandfiftyfourone
			\lhonehundredandfiftyfiveone
			\lhonehundredandfiftysixone
			\lhonehundredandfiftysevenone
			\lhonehundredandfiftyeightone
			\lhonehundredandfiftynineone
			\lhonehundredandsixtyone
			\lhonehundredandsixtyoneone
			\lhonehundredandsixtytwoone
			\lhonehundredandsixtythreeone
			\lhonehundredandsixtyfourone
			\lhonehundredandsixtyfiveone
			\lhonehundredandsixtysixone
			\lhonehundredandsixtysevenone
			\lhonehundredandsixtyeightone
			\lhonehundredandsixtynineone
			\lhonehundredandseventyone
			\lhonehundredandseventyoneone
			\lhonehundredandseventytwoone
			\lhonehundredandseventythreeone
			\lhonehundredandseventyfourone
			\lhonehundredandseventyfiveone
			\lhonehundredandseventysixone
			\lhonehundredandseventysevenone
			\lhonehundredandseventyeightone
			\lhonehundredandseventynineone
			\lhonehundredandeightyone
			\lhonehundredandeightyoneone
			\lhonehundredandeightytwoone
			\lhonehundredandeightythreeone
			\lhonehundredandeightyfourone
			\lhonehundredandeightyfiveone
			\lhonehundredandeightysixone
			\lhonehundredandeightysevenone
			\lhonehundredandeightyeightone
			\lhonehundredandeightynineone
			\lhonehundredandninetyone
			\lhonehundredandninetyoneone
			\lhonehundredandninetytwoone
			\lhonehundredandninetythreeone
			\lhonehundredandninetyfourone
			\lhonehundredandninetyfiveone
			\lhonehundredandninetysixone
			\lhonehundredandninetysevenone
			\lhonehundredandninetyeightone
			\lhonehundredandninetynineone
			\lhtwohundredone
			\lhtwohundredandoneone
			\lhtwohundredandtwoone
			\lhtwohundredandthreeone
			\lhtwohundredandfourone
			\lhtwohundredandfiveone
			\lhtwohundredandsixone
			\lhtwohundredandsevenone
			\lhtwohundredandeightone
			\lhtwohundredandnineone
			\lhtwohundredandtenone
			\lhtwohundredandelevenone
			\lhtwohundredandtwelveone
	}
	} %%%%%%%%%%%%%%%%%%%%%%%%%%%%%%%%%%%%%%%%%%%%%%%%%%%%%%%%%%%%%%%%%%%%%%%%%%%
	\new Voice = "lowerlower" {
	\relative c {
		\global_settings

			\lhonetwo
			\lhtwotwo
			\lhthreetwo
			\lhfourtwo
			\lhfivetwo
			\lhsixtwo
			\lhseventwo
			\lheighttwo
			\lhninetwo
			\lhtentwo
			\lheleventwo
			\lhtwelvetwo
			\lhthirteentwo
			\lhfourteentwo
			\lhfifteentwo
			\lhsixteentwo
			\lhseventeentwo
			\lheighteentwo
			\lhnineteentwo
			\lhtwentytwo
			\lhtwentyonetwo
			\lhtwentytwotwo
			\lhtwentythreetwo
			\lhtwentyfourtwo
			\lhtwentyfivetwo
			\lhtwentysixtwo
			\lhtwentyseventwo
			\lhtwentyeighttwo
			\lhtwentyninetwo
			\lhthirtytwo
			\lhthirtyonetwo
			\lhthirtytwotwo
			\lhthirtythreetwo
			\lhthirtyfourtwo
			\lhthirtyfivetwo
			\lhthirtysixtwo
			\lhthirtyseventwo
			\lhthirtyeighttwo
			\lhthirtyninetwo
			\lhfortytwo
			\lhfortyonetwo
			\lhfortytwotwo
			\lhfortythreetwo
			\lhfortyfourtwo
			\lhfortyfivetwo
			\lhfortysixtwo
			\lhfortyseventwo
			\lhfortyeighttwo
			\lhfortyninetwo
			\lhfiftytwo
			\lhfiftyonetwo
			\lhfiftytwotwo
			\lhfiftythreetwo
			\lhfiftyfourtwo
			\lhfiftyfivetwo
			\lhfiftysixtwo
			\lhfiftyseventwo
			\lhfiftyeighttwo
			\lhfiftyninetwo
			\lhsixtytwo
			\lhsixtyonetwo
			\lhsixtytwotwo
			\lhsixtythreetwo
			\lhsixtyfourtwo
			\lhsixtyfivetwo
			\lhsixtysixtwo
			\lhsixtyseventwo
			\lhsixtyeighttwo
			\lhsixtyninetwo
			\lhseventytwo
			\lhseventyonetwo
			\lhseventytwotwo
			\lhseventythreetwo
			\lhseventyfourtwo
			\lhseventyfivetwo
			\lhseventysixtwo
			\lhseventyseventwo
			\lhseventyeighttwo
			\lhseventyninetwo
			\lheightytwo
			\lheightyonetwo
			\lheightytwotwo
			\lheightythreetwo
			\lheightyfourtwo
			\lheightyfivetwo
			\lheightysixtwo
			\lheightyseventwo
			\lheightyeighttwo
			\lheightyninetwo
			\lhninetytwo
			\lhninetyonetwo
			\lhninetytwotwo
			\lhninetythreetwo
			\lhninetyfourtwo
			\lhninetyfivetwo
			\lhninetysixtwo
			\lhninetyseventwo
			\lhninetyeighttwo
			\lhninetyninetwo
			\lhonehundredtwo
			\lhonehundredandonetwo
			\lhonehundredandtwotwo
			\lhonehundredandthreetwo
			\lhonehundredandfourtwo
			\lhonehundredandfivetwo
			\lhonehundredandsixtwo
			\lhonehundredandseventwo
			\lhonehundredandeighttwo
			\lhonehundredandninetwo
			\lhonehundredandtentwo
			\lhonehundredandeleventwo
			\lhonehundredandtwelvetwo
			\lhonehundredandthirteentwo
			\lhonehundredandfourteentwo
			\lhonehundredandfifteentwo
			\lhonehundredandsixteentwo
			\lhonehundredandseventeentwo
			\lhonehundredandeighteentwo
			\lhonehundredandnineteentwo
			\lhonehundredandtwentytwo
			\lhonehundredandtwentyonetwo
			\lhonehundredandtwentytwotwo
			\lhonehundredandtwentythreetwo
			\lhonehundredandtwentyfourtwo
			\lhonehundredandtwentyfivetwo
			\lhonehundredandtwentysixtwo
			\lhonehundredandtwentyseventwo
			\lhonehundredandtwentyeighttwo
			\lhonehundredandtwentyninetwo
			\lhonehundredandthirtytwo
			\lhonehundredandthirtyonetwo
			\lhonehundredandthirtytwotwo
			\lhonehundredandthirtythreetwo
			\lhonehundredandthirtyfourtwo
			\lhonehundredandthirtyfivetwo
			\lhonehundredandthirtysixtwo
			\lhonehundredandthirtyseventwo
			\lhonehundredandthirtyeighttwo
			\lhonehundredandthirtyninetwo
			\lhonehundredandfortytwo
			\lhonehundredandfortyonetwo
			\lhonehundredandfortytwotwo
			\lhonehundredandfortythreetwo
			\lhonehundredandfortyfourtwo
			\lhonehundredandfortyfivetwo
			\lhonehundredandfortysixtwo
			\lhonehundredandfortyseventwo
			\lhonehundredandfortyeighttwo
			\lhonehundredandfortyninetwo
			\lhonehundredandfiftytwo
			\lhonehundredandfiftyonetwo
			\lhonehundredandfiftytwotwo
			\lhonehundredandfiftythreetwo
			\lhonehundredandfiftyfourtwo
			\lhonehundredandfiftyfivetwo
			\lhonehundredandfiftysixtwo
			\lhonehundredandfiftyseventwo
			\lhonehundredandfiftyeighttwo
			\lhonehundredandfiftyninetwo
			\lhonehundredandsixtytwo
			\lhonehundredandsixtyonetwo
			\lhonehundredandsixtytwotwo
			\lhonehundredandsixtythreetwo
			\lhonehundredandsixtyfourtwo
			\lhonehundredandsixtyfivetwo
			\lhonehundredandsixtysixtwo
			\lhonehundredandsixtyseventwo
			\lhonehundredandsixtyeighttwo
			\lhonehundredandsixtyninetwo
			\lhonehundredandseventytwo
			\lhonehundredandseventyonetwo
			\lhonehundredandseventytwotwo
			\lhonehundredandseventythreetwo
			\lhonehundredandseventyfourtwo
			\lhonehundredandseventyfivetwo
			\lhonehundredandseventysixtwo
			\lhonehundredandseventyseventwo
			\lhonehundredandseventyeighttwo
			\lhonehundredandseventyninetwo
			\lhonehundredandeightytwo
			\lhonehundredandeightyonetwo
			\lhonehundredandeightytwotwo
			\lhonehundredandeightythreetwo
			\lhonehundredandeightyfourtwo
			\lhonehundredandeightyfivetwo
			\lhonehundredandeightysixtwo
			\lhonehundredandeightyseventwo
			\lhonehundredandeightyeighttwo
			\lhonehundredandeightyninetwo
			\lhonehundredandninetytwo
			\lhonehundredandninetyonetwo
			\lhonehundredandninetytwotwo
			\lhonehundredandninetythreetwo
			\lhonehundredandninetyfourtwo
			\lhonehundredandninetyfivetwo
			\lhonehundredandninetysixtwo
			\lhonehundredandninetyseventwo
			\lhonehundredandninetyeighttwo
			\lhonehundredandninetyninetwo
			\lhtwohundredtwo
			\lhtwohundredandonetwo
			\lhtwohundredandtwotwo
			\lhtwohundredandthreetwo
			\lhtwohundredandfourtwo
			\lhtwohundredandfivetwo
			\lhtwohundredandsixtwo
			\lhtwohundredandseventwo
			\lhtwohundredandeighttwo
			\lhtwohundredandninetwo
			\lhtwohundredandtentwo
			\lhtwohundredandeleventwo
			\lhtwohundredandtwelvetwo
	} 
	}
>>
