\include "include/tweaks/cowell-clusters.ly"
\include "include/tweaks/offset_positions.ly"
\include "include/tweaks/slash.ly"
\include "include/tweaks/poco_a_poco.ly"
\include "include/tweaks/brackets.ly"
% \include "include/tweaks/tspan.ly"
\include "include/tweaks/hidenote.ly"
