upper = <<
	\new Voice = "upperupper" {
	\relative c'' {
	        \clef treble
		\global_settings

			\rhoneone
			\rhtwoone
			\rhthreeone
			\rhfourone
			\rhfiveone
			\rhsixone
			\rhsevenone
			\rheightone
			\rhnineone
			\rhtenone
			\rhelevenone
			\rhtwelveone
			\rhthirteenone
			\rhfourteenone
			\rhfifteenone
			\rhsixteenone
			\rhseventeenone
			\rheighteenone
			\rhnineteenone
			\rhtwentyone
			\rhtwentyoneone
			\rhtwentytwoone
			\rhtwentythreeone
			\rhtwentyfourone
			\rhtwentyfiveone
			\rhtwentysixone
			\rhtwentysevenone
			\rhtwentyeightone
			\rhtwentynineone
			\rhthirtyone
			\rhthirtyoneone
			\rhthirtytwoone
			\rhthirtythreeone
			\rhthirtyfourone
			\rhthirtyfiveone
			\rhthirtysixone
			\rhthirtysevenone
			\rhthirtyeightone
			\rhthirtynineone
			\rhfortyone
			\rhfortyoneone
			\rhfortytwoone
			\rhfortythreeone
			\rhfortyfourone
			\rhfortyfiveone
			\rhfortysixone
			\rhfortysevenone
			\rhfortyeightone
			\rhfortynineone
			\rhfiftyone
			\rhfiftyoneone
			\rhfiftytwoone
			\rhfiftythreeone
			\rhfiftyfourone
			\rhfiftyfiveone
			\rhfiftysixone
			\rhfiftysevenone
			\rhfiftyeightone
			\rhfiftynineone
			\rhsixtyone
			\rhsixtyoneone
			\rhsixtytwoone
			\rhsixtythreeone
			\rhsixtyfourone
			\rhsixtyfiveone
			\rhsixtysixone
			\rhsixtysevenone
			\rhsixtyeightone
			\rhsixtynineone
			\rhseventyone
			\rhseventyoneone
			\rhseventytwoone
			\rhseventythreeone
			\rhseventyfourone
			\rhseventyfiveone
			\rhseventysixone
			\rhseventysevenone
			\rhseventyeightone
			\rhseventynineone
			\rheightyone
			\rheightyoneone
			\rheightytwoone
			\rheightythreeone
			\rheightyfourone
			\rheightyfiveone
			\rheightysixone
			\rheightysevenone
			\rheightyeightone
			\rheightynineone
			\rhninetyone
			\rhninetyoneone
			\rhninetytwoone
			\rhninetythreeone
			\rhninetyfourone
			\rhninetyfiveone
			\rhninetysixone
			\rhninetysevenone
			\rhninetyeightone
			\rhninetynineone
			\rhonehundredone
			\rhonehundredandoneone
			\rhonehundredandtwoone
			\rhonehundredandthreeone
			\rhonehundredandfourone
			\rhonehundredandfiveone
			\rhonehundredandsixone
			\rhonehundredandsevenone
			\rhonehundredandeightone
			\rhonehundredandnineone
			\rhonehundredandtenone
			\rhonehundredandelevenone
			\rhonehundredandtwelveone
			\rhonehundredandthirteenone
			\rhonehundredandfourteenone
			\rhonehundredandfifteenone
			\rhonehundredandsixteenone
			\rhonehundredandseventeenone
			\rhonehundredandeighteenone
			\rhonehundredandnineteenone
			\rhonehundredandtwentyone
			\rhonehundredandtwentyoneone
			\rhonehundredandtwentytwoone
			\rhonehundredandtwentythreeone
			\rhonehundredandtwentyfourone
			\rhonehundredandtwentyfiveone
			\rhonehundredandtwentysixone
			\rhonehundredandtwentysevenone
			\rhonehundredandtwentyeightone
			\rhonehundredandtwentynineone
			\rhonehundredandthirtyone
			\rhonehundredandthirtyoneone
			\rhonehundredandthirtytwoone
			\rhonehundredandthirtythreeone
			\rhonehundredandthirtyfourone
			\rhonehundredandthirtyfiveone
			\rhonehundredandthirtysixone
			\rhonehundredandthirtysevenone
			\rhonehundredandthirtyeightone
			\rhonehundredandthirtynineone
			\rhonehundredandfortyone
			\rhonehundredandfortyoneone
			\rhonehundredandfortytwoone
			\rhonehundredandfortythreeone
			\rhonehundredandfortyfourone
			\rhonehundredandfortyfiveone
			\rhonehundredandfortysixone
			\rhonehundredandfortysevenone
			\rhonehundredandfortyeightone
			\rhonehundredandfortynineone
			\rhonehundredandfiftyone
			\rhonehundredandfiftyoneone
			\rhonehundredandfiftytwoone
			\rhonehundredandfiftythreeone
			\rhonehundredandfiftyfourone
			\rhonehundredandfiftyfiveone
			\rhonehundredandfiftysixone
			\rhonehundredandfiftysevenone
			\rhonehundredandfiftyeightone
			\rhonehundredandfiftynineone
			\rhonehundredandsixtyone
			\rhonehundredandsixtyoneone
			\rhonehundredandsixtytwoone
			\rhonehundredandsixtythreeone
			\rhonehundredandsixtyfourone
			\rhonehundredandsixtyfiveone
			\rhonehundredandsixtysixone
			\rhonehundredandsixtysevenone
			\rhonehundredandsixtyeightone
			\rhonehundredandsixtynineone
			\rhonehundredandseventyone
			\rhonehundredandseventyoneone
			\rhonehundredandseventytwoone
			\rhonehundredandseventythreeone
			\rhonehundredandseventyfourone
			\rhonehundredandseventyfiveone
			\rhonehundredandseventysixone
			\rhonehundredandseventysevenone
			\rhonehundredandseventyeightone
			\rhonehundredandseventynineone
			\rhonehundredandeightyone
			\rhonehundredandeightyoneone
			\rhonehundredandeightytwoone
			\rhonehundredandeightythreeone
			\rhonehundredandeightyfourone
			\rhonehundredandeightyfiveone
			\rhonehundredandeightysixone
			\rhonehundredandeightysevenone
			\rhonehundredandeightyeightone
			\rhonehundredandeightynineone
			\rhonehundredandninetyone
			\rhonehundredandninetyoneone
			\rhonehundredandninetytwoone
			\rhonehundredandninetythreeone
			\rhonehundredandninetyfourone
			\rhonehundredandninetyfiveone
			\rhonehundredandninetysixone
			\rhonehundredandninetysevenone
			\rhonehundredandninetyeightone
			\rhonehundredandninetynineone
			\rhtwohundredone
			\rhtwohundredandoneone
			\rhtwohundredandtwoone
			\rhtwohundredandthreeone
			\rhtwohundredandfourone
			\rhtwohundredandfiveone
			\rhtwohundredandsixone
			\rhtwohundredandsevenone
			\rhtwohundredandeightone
			\rhtwohundredandnineone
			\rhtwohundredandtenone
			\rhtwohundredandelevenone
			\rhtwohundredandtwelveone
		}
	} %%%%%%%%%%%%%%%%%%%%%%%%%%%%%%%%%%%%%%%%%%%%%%%%%%%%%%%%%%%%%%%%%%%%%%
	\new Voice = "upperlower" {
	\relative c' {
		\global_settings

			\rhonetwo
			\rhtwotwo
			\rhthreetwo
			\rhfourtwo
			\rhfivetwo
			\rhsixtwo
			\rhseventwo
			\rheighttwo
			\rhninetwo
			\rhtentwo
			\rheleventwo
			\rhtwelvetwo
			\rhthirteentwo
			\rhfourteentwo
			\rhfifteentwo
			\rhsixteentwo
			\rhseventeentwo
			\rheighteentwo
			\rhnineteentwo
			\rhtwentytwo
			\rhtwentyonetwo
			\rhtwentytwotwo
			\rhtwentythreetwo
			\rhtwentyfourtwo
			\rhtwentyfivetwo
			\rhtwentysixtwo
			\rhtwentyseventwo
			\rhtwentyeighttwo
			\rhtwentyninetwo
			\rhthirtytwo
			\rhthirtyonetwo
			\rhthirtytwotwo
			\rhthirtythreetwo
			\rhthirtyfourtwo
			\rhthirtyfivetwo
			\rhthirtysixtwo
			\rhthirtyseventwo
			\rhthirtyeighttwo
			\rhthirtyninetwo
			\rhfortytwo
			\rhfortyonetwo
			\rhfortytwotwo
			\rhfortythreetwo
			\rhfortyfourtwo
			\rhfortyfivetwo
			\rhfortysixtwo
			\rhfortyseventwo
			\rhfortyeighttwo
			\rhfortyninetwo
			\rhfiftytwo
			\rhfiftyonetwo
			\rhfiftytwotwo
			\rhfiftythreetwo
			\rhfiftyfourtwo
			\rhfiftyfivetwo
			\rhfiftysixtwo
			\rhfiftyseventwo
			\rhfiftyeighttwo
			\rhfiftyninetwo
			\rhsixtytwo
			\rhsixtyonetwo
			\rhsixtytwotwo
			\rhsixtythreetwo
			\rhsixtyfourtwo
			\rhsixtyfivetwo
			\rhsixtysixtwo
			\rhsixtyseventwo
			\rhsixtyeighttwo
			\rhsixtyninetwo
			\rhseventytwo
			\rhseventyonetwo
			\rhseventytwotwo
			\rhseventythreetwo
			\rhseventyfourtwo
			\rhseventyfivetwo
			\rhseventysixtwo
			\rhseventyseventwo
			\rhseventyeighttwo
			\rhseventyninetwo
			\rheightytwo
			\rheightyonetwo
			\rheightytwotwo
			\rheightythreetwo
			\rheightyfourtwo
			\rheightyfivetwo
			\rheightysixtwo
			\rheightyseventwo
			\rheightyeighttwo
			\rheightyninetwo
			\rhninetytwo
			\rhninetyonetwo
			\rhninetytwotwo
			\rhninetythreetwo
			\rhninetyfourtwo
			\rhninetyfivetwo
			\rhninetysixtwo
			\rhninetyseventwo
			\rhninetyeighttwo
			\rhninetyninetwo
			\rhonehundredtwo
			\rhonehundredandonetwo
			\rhonehundredandtwotwo
			\rhonehundredandthreetwo
			\rhonehundredandfourtwo
			\rhonehundredandfivetwo
			\rhonehundredandsixtwo
			\rhonehundredandseventwo
			\rhonehundredandeighttwo
			\rhonehundredandninetwo
			\rhonehundredandtentwo
			\rhonehundredandeleventwo
			\rhonehundredandtwelvetwo
			\rhonehundredandthirteentwo
			\rhonehundredandfourteentwo
			\rhonehundredandfifteentwo
			\rhonehundredandsixteentwo
			\rhonehundredandseventeentwo
			\rhonehundredandeighteentwo
			\rhonehundredandnineteentwo
			\rhonehundredandtwentytwo
			\rhonehundredandtwentyonetwo
			\rhonehundredandtwentytwotwo
			\rhonehundredandtwentythreetwo
			\rhonehundredandtwentyfourtwo
			\rhonehundredandtwentyfivetwo
			\rhonehundredandtwentysixtwo
			\rhonehundredandtwentyseventwo
			\rhonehundredandtwentyeighttwo
			\rhonehundredandtwentyninetwo
			\rhonehundredandthirtytwo
			\rhonehundredandthirtyonetwo
			\rhonehundredandthirtytwotwo
			\rhonehundredandthirtythreetwo
			\rhonehundredandthirtyfourtwo
			\rhonehundredandthirtyfivetwo
			\rhonehundredandthirtysixtwo
			\rhonehundredandthirtyseventwo
			\rhonehundredandthirtyeighttwo
			\rhonehundredandthirtyninetwo
			\rhonehundredandfortytwo
			\rhonehundredandfortyonetwo
			\rhonehundredandfortytwotwo
			\rhonehundredandfortythreetwo
			\rhonehundredandfortyfourtwo
			\rhonehundredandfortyfivetwo
			\rhonehundredandfortysixtwo
			\rhonehundredandfortyseventwo
			\rhonehundredandfortyeighttwo
			\rhonehundredandfortyninetwo
			\rhonehundredandfiftytwo
			\rhonehundredandfiftyonetwo
			\rhonehundredandfiftytwotwo
			\rhonehundredandfiftythreetwo
			\rhonehundredandfiftyfourtwo
			\rhonehundredandfiftyfivetwo
			\rhonehundredandfiftysixtwo
			\rhonehundredandfiftyseventwo
			\rhonehundredandfiftyeighttwo
			\rhonehundredandfiftyninetwo
			\rhonehundredandsixtytwo
			\rhonehundredandsixtyonetwo
			\rhonehundredandsixtytwotwo
			\rhonehundredandsixtythreetwo
			\rhonehundredandsixtyfourtwo
			\rhonehundredandsixtyfivetwo
			\rhonehundredandsixtysixtwo
			\rhonehundredandsixtyseventwo
			\rhonehundredandsixtyeighttwo
			\rhonehundredandsixtyninetwo
			\rhonehundredandseventytwo
			\rhonehundredandseventyonetwo
			\rhonehundredandseventytwotwo
			\rhonehundredandseventythreetwo
			\rhonehundredandseventyfourtwo
			\rhonehundredandseventyfivetwo
			\rhonehundredandseventysixtwo
			\rhonehundredandseventyseventwo
			\rhonehundredandseventyeighttwo
			\rhonehundredandseventyninetwo
			\rhonehundredandeightytwo
			\rhonehundredandeightyonetwo
			\rhonehundredandeightytwotwo
			\rhonehundredandeightythreetwo
			\rhonehundredandeightyfourtwo
			\rhonehundredandeightyfivetwo
			\rhonehundredandeightysixtwo
			\rhonehundredandeightyseventwo
			\rhonehundredandeightyeighttwo
			\rhonehundredandeightyninetwo
			\rhonehundredandninetytwo
			\rhonehundredandninetyonetwo
			\rhonehundredandninetytwotwo
			\rhonehundredandninetythreetwo
			\rhonehundredandninetyfourtwo
			\rhonehundredandninetyfivetwo
			\rhonehundredandninetysixtwo
			\rhonehundredandninetyseventwo
			\rhonehundredandninetyeighttwo
			\rhonehundredandninetyninetwo
			\rhtwohundredtwo
			\rhtwohundredandonetwo
			\rhtwohundredandtwotwo
			\rhtwohundredandthreetwo
			\rhtwohundredandfourtwo
			\rhtwohundredandfivetwo
			\rhtwohundredandsixtwo
			\rhtwohundredandseventwo
			\rhtwohundredandeighttwo
			\rhtwohundredandninetwo
			\rhtwohundredandtentwo
			\rhtwohundredandeleventwo
			\rhtwohundredandtwelvetwo

	}
	}
>>
