309.077 21 0.1757 
309.077 41 0.1757 
309.077 49 0.1757 
309.077 42 0.1757 
309.077 46 0.0962
309.077 58 0.2885
309.077 66 0.2885
309.173 42 0.1923
309.366 41 0.1923
309.366 65 0.1923
309.366 73 0.1923
309.366 77 0.1923
309.537 34 0.4600
309.537 72 0.4600
309.537 74 0.4600
309.537 76 0.4600
309.537 77 0.4600
309.537 78 0.4600
309.558 49 0.1923
309.558 68 0.1923
309.558 73 0.1923
309.558 77 0.1923
309.75 53 0.1923
309.75 70 0.1923
309.75 73 0.1923
309.75 77 0.1923
309.942 70 0.1923
309.942 70 0.5769
309.942 73 0.5769
309.942 77 0.5769
310.135 65 0.1923
310.327 61 0.1923
310.519 58 0.1923
310.519 70 1.1538
310.519 73 1.1538
310.519 77 1.1538
310.712 56 0.1923
310.904 54 0.1923
311.096 53 0.1923
311.289 49 0.1923
311.481 46 0.1923
311.673 41 0.1923
311.673 69 0.3846
311.673 77 0.3846
311.673 81 0.3846
311.866 53 0.1923
312.058 57 0.1923
312.058 72 0.3846
312.058 77 0.3846
312.058 81 0.3846
312.25 65 0.1923
312.442 57 0.1923
312.442 74 0.3846
312.442 77 0.3846
312.442 81 0.3846
312.635 53 0.1923
312.827 41 0.1923
312.827 72 0.3846
312.827 77 0.3846
312.827 81 0.3846
313.019 53 0.1923
313.212 57 0.1923
313.212 69 0.3846
313.212 77 0.3846
313.212 81 0.3846
313.404 65 0.1923
313.596 57 0.1923
313.596 74 0.3846
313.596 77 0.3846
313.596 81 0.3846
313.789 53 0.1923
313.981 45 0.1923
313.981 72 0.3846
313.981 76 0.5769
313.981 81 0.5769
314.173 57 0.1923
314.366 60 0.1923
314.366 69 0.1923
314.558 57 0.1923
314.558 64 0.1923
314.558 72 0.1923
314.558 76 0.1923
314.558 81 0.1923
314.75 72 0.1923
314.942 76 0.1923
314.942 81 0.1923
314.942 84 0.1923
315.135 36 0.1923
315.135 76 0.1923
315.327 81 0.1923
315.327 84 0.1923
315.327 88 0.1923
315.519 81 0.1923
315.712 84 0.0641
315.712 48 0.1923
315.712 55 0.1923
315.712 58 0.1923
315.712 64 0.1923
315.776 82 0.0641
315.84 79 0.0641
315.904 76 0.0641
315.968 72 0.0641
316.032 70 0.0641
316.096 67 0.1923
316.289 41 0.1923
316.289 69 0.1923
316.289 77 0.1923
316.289 81 0.1923
316.481 53 0.1923
316.481 72 0.1923
316.481 77 0.1923
316.481 81 0.1923
316.673 57 0.1923
316.673 74 0.1923
316.673 77 0.1923
316.673 81 0.1923
316.866 65 0.1923
316.866 72 0.3846
316.866 77 0.5769
316.866 81 0.5769
317.058 57 0.1923
317.25 53 0.1923
317.25 69 0.1923
317.442 39 0.1923
317.442 72 0.1923
317.442 77 0.1923
317.442 81 0.1923
317.635 51 0.1923
317.635 74 0.1923
317.635 77 0.1923
317.635 81 0.1923
317.827 53 0.1923
317.827 72 0.1923
317.827 77 0.1923
317.827 81 0.1923
318.019 65 0.1923
318.019 69 0.1923
318.019 77 0.1923
318.019 81 0.1923
318.212 53 0.1923
318.212 72 0.1923
318.212 81 0.1923
318.212 81 0.1923
318.404 51 0.1923
318.404 74 0.1923
318.404 77 0.1923
318.404 81 0.1923
318.596 50 0.1923
318.596 72 0.3846
318.596 78 0.5769
318.596 81 0.5769
318.789 62 0.1923
318.981 54 0.1923
318.981 57 0.1923
319.173 50 0.1923
319.173 57 0.1923
319.173 62 0.1923
319.173 72 0.1923
319.173 78 0.1923
319.173 81 0.1923
319.366 72 0.1923
319.558 78 0.1923
319.558 81 0.1923
319.558 84 0.1923
319.75 34 0.1923
319.75 78 0.1923
319.942 81 0.1923
319.942 84 0.1923
319.942 90 0.1923
320.135 81 0.1923
320.327 86 0.0769
320.327 67 0.1923
320.327 70 0.1923
320.327 70 0.1923
320.327 74 0.1923
320.404 82 0.0769
320.481 79 0.0769
320.558 74 0.0769
320.635 70 0.0769
320.712 67 0.1923
320.904 36 0.1923
320.904 64 0.1923
320.904 70 0.5769
320.904 72 0.5769
321.096 48 0.1923
321.096 65 0.1923
321.289 52 0.1923
321.289 67 0.1923
321.481 55 0.1923
321.481 60 0.3846
321.481 70 0.3846
321.481 72 0.3846
321.481 48 0.5769
321.673 53 0.1923
321.866 57 0.1923
321.866 65 0.1923
321.866 69 0.1923
321.866 72 0.1923
322.058 34 0.1923
322.058 79 0.3846
322.058 70 0.5769
322.058 73 0.5769
322.25 46 0.1923
322.442 49 0.1923
322.442 77 0.1923
322.635 47 0.1923
322.635 81 0.3846
322.635 69 0.5769
322.635 74 0.5769
322.827 77 0.1923
323.019 62 0.1923
