388.687 21 0.2661
388.687 35 0.2661
388.687 91 0.2661
388.687 104 0.2661
388.953 32 0.4223
388.953 55 0.4223
388.953 59 0.4223
388.953 70 0.4223
389.37 21 0.6833
389.37 35 0.6833
389.37 91 0.6833
389.37 104 0.6833
390.054 34 0.6833
390.054 62 1.1056
390.054 76 1.1056
390.054 77 1.1056
390.054 78 1.1056
390.054 80 1.1056
390.737 34 0.4223
391.159 32 0.1994
391.159 55 0.1994
391.159 59 0.1994
391.159 70 0.1994
391.359 21 0.3226
391.359 35 0.3226
391.359 91 0.3226
391.359 104 0.3226
391.681 32 0.6989
391.681 55 0.6989
391.681 59 0.6989
391.681 70 0.6989
392.326 21 0.5220
392.326 35 0.5220
392.326 91 0.5220
392.326 104 0.5220
392.848 21 0.3226
392.848 35 0.3226
392.848 91 0.3226
392.848 104 0.3226
393.126 21 0.1994
393.126 35 0.1994
393.126 91 0.1994
393.126 104 0.1994
