421.467 50 0.3001
421.467 75 0.3001
421.767 21 0.4856
421.767 35 0.4856
421.767 91 0.4856
421.767 104 0.4856
422.253 27 0.7856
422.253 40 0.7856
422.253 66 0.7856
422.253 79 0.7856
423.038 50 1.2712
423.038 75 1.2712
424.31 21 1.2712
424.31 35 1.2712
424.31 91 1.2712
424.31 104 1.2712
425.581 21 0.4886
425.581 35 0.4886
425.581 91 0.4886
425.581 104 0.4886
426.066 21 0.3001
426.066 35 0.3001
426.066 91 0.3001
426.066 104 0.3001
426.366 44 3.3281
426.366 24 3.3281
426.366 35 3.3281
426.366 33 3.3281
429.695 21 2.2717
429.695 35 2.2717
429.695 66 2.2717
429.695 80 2.2717
432.466 27 1.3858
432.466 40 1.3858
432.466 91 1.3858
432.466 104 1.3858
433.853 21 0.8566
433.853 35 0.8566
433.853 66 0.8566
433.853 80 0.8566
434.709 27 0.5293
434.709 40 0.5293
434.709 91 0.5293
434.709 104 0.5293
435.238 21 0.3271
435.238 35 0.3271
435.238 66 0.3271
435.238 80 0.3271
