444.883 69 0.0577
444.883 48 0.261
444.883 86 0.261
444.883 88 0.261
444.883 90 0.261
444.941 67 0.0577
444.998 66 0.0577
445.056 64 0.1442
445.2 63 0.2885
445.489 67 0.0481
445.537 69 0.0481
445.566 54 0.4555
445.585 71 0.0481
445.633 60 0.2885
445.922 50 0.2885
446.022 67 0.4555
446.022 75 0.4555
446.022 80 0.4555
446.066 60 0.1442
446.21 61 0.0961
446.25 48 0.07
446.25 79 3.3167
446.25 86 3.3167
446.25 90 3.3167
446.306 64 0.0961
446.402 67 0.0961
446.434 48 0.07
446.498 71 0.1442
446.498 33 0.2885
446.643 70 0.1442
446.734 48 0.07
446.787 69 0.1442
446.931 68 0.2885
447.075 49 0.1442
447.217 48 0.07
447.22 64 0.1442
447.355 54 0.5528
447.364 63 0.1442
447.508 62 0.1442
447.652 61 0.1442
447.797 70 0.1442
447.908 67 0.5528
447.908 75 0.5528
447.908 80 0.5528
448 48 0.07
448.085 68 0.1442
448.229 69 0.1442
448.229 38 0.2885
448.229 54 0.2885
448.373 64 0.1442
448.461 54 0.5528
448.518 66 0.1442
448.662 69 0.1442
448.806 64 0.1442
448.95 62 0.4327
449.013 67 0.5528
449.013 75 0.5528
449.013 80 0.5528
449.095 45 0.2885
449.095 54 0.2885
449.383 40 0.4327
449.383 47 0.4327
449.383 55 0.7212
