472.98 83 0.1293
473.109 71 0.1293
473.239 83 0.1293
473.241 48 0.07
473.241 76 0.4223
473.241 82 0.4223
473.241 86 0.4223
473.368 71 0.1293
473.497 83 0.1293
473.627 71 0.1293
473.756 83 0.1293
473.885 71 0.1293
474.015 83 0.1293
474.144 71 0.1293
474.273 69 3.1034
474.273 81 3.1034
474.273 55 6.2069
474.273 62 6.2069
474.273 65 6.2069
474.273 71 6.2069
474.273 77 6.2069
474.273 83 7.2414
474.347 46 1.1056
474.402 83 0.1293
474.532 71 0.1293
474.661 83 0.1293
474.79 71 0.1293
474.92 83 0.1293
475.049 71 0.1293
475.178 83 0.1293
475.308 71 0.1293
475.437 83 0.1293
475.566 71 0.1293
475.696 83 0.1293
475.825 71 0.1293
475.954 83 0.1293
476.083 71 0.1293
476.213 83 0.1293
476.342 71 0.1293
476.471 83 0.1293
476.601 71 0.1293
476.73 83 0.1293
476.859 71 0.1293
476.989 83 0.1293
477.118 71 0.1293
477.247 83 0.1293
477.288 48 0.085
477.288 52 0.085
477.288 53 0.085
477.288 55 0.085
477.288 57 0.085
477.288 59 0.085
477.288 61 0.085
477.288 62 0.085
477.288 63 0.085
477.288 64 0.085
477.288 66 0.085
477.288 68 0.085
477.377 67 2.069
477.377 79 2.069
477.506 83 0.1293
