501.079 53 0.2610
501.079 57 0.2610
501.079 67 0.2610
501.079 75 0.2610
501.34 53 0.1613
501.34 57 0.1613
501.34 67 0.1613
501.34 75 0.1613
501.501 79 0.4223
501.501 66 0.4223
501.501 40 0.4223
501.501 27 0.4223
501.923 79 0.2610
501.923 66 0.2610
501.923 40 0.2610
501.923 27 0.2610
502.185 70 0.6214
502.185 69 0.6214
502.185 67 0.6214
502.185 48 0.6214
502.185 47 0.6214
502.806 44 0.2373
502.806 70 0.2373
502.806 69 0.2373
502.806 67 0.2373
502.806 48 0.2373
502.806 47 0.2373
503.043 44 0.1467
503.043 70 0.1467
503.043 69 0.1467
503.043 67 0.1467
503.043 48 0.1467
503.043 47 0.1467
503.043 44 0.1467
503.19 79 0.8392
503.19 66 0.8392
503.19 37 0.8392
504.029 79 0.3205
504.029 66 0.3205
504.029 37 0.3205
504.35 79 0.1981
504.35 66 0.1981
504.35 37 0.1981
504.548 70 0.6072
504.548 69 0.6072
504.548 67 0.6072
504.548 40 0.6072
504.548 27 0.6072
505.155 74 0.3753
505.155 64 0.3753
505.155 60 0.3753
505.155 48 0.3753
505.155 47 0.3753
505.155 44 0.3753
505.53 70 0.2319
505.53 69 0.2319
505.53 67 0.2319
505.53 37 0.2319
