529.176 55 0.125
529.301 44 0.125
529.301 32 0.25
529.426 53 0.125
529.437 49 0.25
529.437 51 0.25
529.437 54 0.25
529.437 61 4.4223
529.437 63 4.4223
529.551 31 0.25
529.551 43 0.25
529.801 67 0.125
529.801 55 0.25
529.926 65 0.125
530.051 63 0.125
530.051 47 0.25
530.176 62 0.125
530.301 72 0.125
530.301 48 0.25
530.426 70 0.125
530.543 35 0.25
530.543 36 0.25
530.543 38 0.25
530.551 68 0.125
530.551 50 0.25
530.676 67 0.125
530.801 65 0.125
530.801 51 0.25
530.926 63 0.125
531.051 62 0.125
531.051 53 0.25
531.176 63 0.0625
531.226 49 0.25
531.226 51 0.25
531.226 54 0.25
531.239 65 0.0625
531.301 63 0.125
531.301 55 0.25
531.426 62 0.125
531.487 35 0.25
531.487 36 0.25
531.487 38 0.25
531.551 60 0.125
531.551 55 0.25
531.648 49 0.25
531.648 51 0.25
531.648 54 0.25
531.676 59 0.125
531.801 60 0.125
531.801 36 0.25
531.926 58 0.125
532.051 56 0.125
532.051 38 0.25
532.176 55 0.125
532.301 53 0.125
532.301 39 0.25
532.37 35 0.25
532.37 36 0.25
532.37 38 0.25
532.426 51 0.125
532.551 50 0.125
532.551 41 0.25
532.676 51 0.0625
532.739 53 0.0625
532.801 51 0.125
532.801 43 0.25
532.815 49 0.25
532.815 51 0.25
532.815 54 0.25
532.926 50 0.125
533.051 48 0.125
533.051 31 0.25
533.176 47 0.125
533.301 36 0.75
533.301 48 0.75
533.337 35 0.25
533.337 36 0.25
533.337 38 0.25
533.66 49 0.25
533.66 51 0.25
533.66 54 0.25
