646.2520 22  2.3402
646.2520 32  2.3402
646.2520 45  0.2925
646.2520 47  0.2925
646.2520 48  0.2925
647.6983 72  0.2925
647.6983 71  0.2925
647.6983 69  0.2925
648.2508 45  0.2925
648.2508 47  0.2925
648.2508 48  0.2925
